\begin{tabular}{l|l|r@{.}l}
OS & Program & \multicolumn{2}{c}{Time (ms)}\\
\hline
\multirow{6}{*}{Windows} & getpid & 0&2 \\
& gettime & 1&5 \\
& pslist & 450&2 \\
& lsmod & 698&1 \\
& getpsfile & 59&8 \\
& getdrvfile & 751&9 \\
\hline
\multirow{5}{*}{Linux} & getpid & 9&6 \\
& gettime & 9&6 \\
& pslist & 6394&1 \\
& lsmod & 2437&0 \\
& getpsfile & 20723&9 \\
\hline
\multirow{6}{*}{Haiku} & getpid & 33&7 \\
& gettime & 1&8 \\
& pslist & 712&1 \\
& lsmod & 3351&7 \\
& getpsfile & 479&6 \\
& getdrvfile & 1901&0 \\
\end{tabular}
